…
``` r
library(tidytext)

top_words <- nyt_full |>
  distinct(title_id, .keep_all = TRUE) |>
  unnest_tokens(word, title) |>
  anti_join(stop_words, by = "word")

top_words |>
  count(word) |>
  arrange(desc(n))
```

    # A tibble: 5,373 × 2
       word       n
       <chr>  <int>
     1 night     85
     2 love      76
     3 death     75
     4 house     69
     5 dark      65
     6 time      62
     7 life      51
     8 dead      50
     9 secret    46
    10 girl      44
    # … with 5,363 more rows

``` r
top_words |>
  semi_join(top_authors,
    by = "author"
  )
```

    # A tibble: 851 × 6
        year week        rank title_id author             word  
       <dbl> <date>     <dbl>    <dbl> <chr>              <chr> 
     1  1977 1977-03-27     8     6284 Stephen King       shini…
     2  1978 1978-03-26    12      242 Mary Higgins Clark stran…
     3  1978 1978-03-26    12      242 Mary Higgins Clark watch…
     4  1979 1979-01-21    15     6383 Stephen King       stand 
     5  1979 1979-09-09     8     4944 Stephen King       dead  
     6  1979 1979-09-09     8     4944 Stephen King       zone  
     7  1980 1980-07-27    13     4898 Mary Higgins Clark cradle
     8  1980 1980-07-27    13     4898 Mary Higgins Clark fall  
     9  1980 1980-08-24     6     1830 Stephen King       fires…
    10  1980 1980-11-02    13     6140 Danielle Steel     ring  
    # … with 841 more rows
…
